{
    "𝕒": "a",
    "𝕓": "b",
    "𝕔": "c",
    "𝕕": "d",
    "𝕖": "e",
    "𝕗": "f",
    "𝕘": "g",
    "𝕙": "h",
    "𝕚": "i",
    "𝕛": "j",
    "𝕜": "k",
    "𝕝": "l",
    "𝕞": "m",
    "𝕟": "n",
    "𝕠": "o",
    "𝕡": "p",
    "𝕢": "q",
    "𝕣": "r",
    "𝕤": "s",
    "𝕥": "t",
    "𝕦": "u",
    "𝕧": "v",
    "𝕨": "w",
    "𝕩": "x",
    "𝕪": "y",
    "𝕫": "z",
    "𝔸": "A",
    "𝔹": "B",
    "ℂ": "C",
    "𝔻": "D",
    "𝔼": "E",
    "𝔽": "F",
    "𝔾": "G",
    "ℍ": "H",
    "𝕀": "I",
    "𝕁": "J",
    "𝕂": "K",
    "𝕃": "L",
    "𝕄": "M",
    "ℕ": "N",
    "𝕆": "O",
    "ℙ": "P",
    "ℚ": "Q",
    "ℝ": "R",
    "𝕊": "S",
    "𝕋": "T",
    "𝕌": "U",
    "𝕍": "V",
    "𝕎": "W",
    "𝕏": "X",
    "𝕐": "Y",
    "ℤ": "Z"
}