{
    "0️⃣": "0",
    "1️⃣": "1",
    "2️⃣": "2",
    "3️⃣": "3",
    "4️⃣": "4",
    "5️⃣": "5",
    "6️⃣": "6",
    "7️⃣": "7",
    "8️⃣": "8",
    "9️⃣": "9",
    "🔟": "10",
    "🅰️": "A",
    "🆎": "AB",
    "🅱️": "B",
    "🆑": "CL",
    "🅾️": "O",
    "ℹ️": "i",
    "🆔": "ID",
    "Ⓜ️": "M",
    "🆖": "NG",
    "🆗": "OK",
    "🅿️": "P",
    "🆘": "SOS",
    "🆚": "VS"
}