{
    "Ａ": "a",
    "𝓑": "b",
    "𝐜": "c",
    "𝐝": "d",
    "Ẹ": "e",
    "𝐟": "f",
    "ﻮ": "g",
    "Ｈ": "h",
    "𝐢": "i",
    "ן": "j",
    "ᵏ": "k",
    "ˡ": "l",
    "𝐦": "m",
    "ภ": "n",
    "𝔬": "o",
    "𝐩": "p",
    "Ⓠ": "q",
    "Ｒ": "r",
    "𝔰": "s",
    "ᵗ": "t",
    "ù": "u",
    "ν": "v",
    "𝕎": "w",
    "𝔁": "x",
    "𝔶": "y",
    "ᶻ": "z",
    "Ã": "A",
    "ᵇ": "b",
    "Ｃ": "C",
    "𝕕": "d",
    "ᗴ": "E",
    "𝐅": "F",
    "g": "b",
    "ｈ": "h",
    "ι": "I",
    "נ": "J",
    "Ҝ": "K",
    "𝔩": "L",
    "м": "M",
    "η": "N",
    "Ø": "O",
    "ק": "P",
    "Ｑ": "Q",
    "𝓻": "R",
    "𝐒": "S",
    "т": "T",
    "ᑌ": "U",
    "𝐕": "V",
    "Ŵ": "W",
    "Ж": "X",
    "Ⓨ": "Y",
    "ℤ": "Z"
}