{
    "ᵃ": "a",
    "ᵇ": "b",
    "ᶜ": "c",
    "ᵈ": "d",
    "ᵉ": "e",
    "ᶠ": "f",
    "ᵍ": "g",
    "ʰ": "h",
    "ⁱ": "i",
    "ʲ": "j",
    "ᵏ": "k",
    "ˡ": "l",
    "ᵐ": "m",
    "ⁿ": "n",
    "ᵒ": "o",
    "ᵖ": "p",
    "ᵠ": "q",
    "ʳ": "r",
    "ˢ": "s",
    "ᵗ": "t",
    "ᵘ": "u",
    "ᵛ": "v",
    "ʷ": "w",
    "ˣ": "x",
    "ʸ": "y",
    "ᶻ": "z",
    "ᴬ": "A",
    "ᴮ": "B",
    "ᴰ": "D",
    "ᴱ": "E",
    "ᴳ": "G",
    "ᴴ": "H",
    "ᴵ": "I",
    "ᶦ": "I",
    "ᴶ": "J",
    "ᴷ": "K",
    "ᴸ": "L",
    "ᴹ": "M",
    "ᴺ": "N",
    "ᴼ": "O",
    "ᴾ": "P",
    "ᴿ": "R",
    "ᵀ": "T",
    "ᵁ": "U",
    "ⱽ": "V",
    "ᵂ": "W"
}